Analyse linéaire discriminante
…
.panel[.panel-name[Résultats performance]

```
## # A tibble: 2 x 4
##   .metric  .estimator .estimate .config             
##   <chr>    <chr>          <dbl> <chr>               
## 1 accuracy binary         0.972 Preprocessor1_Model1
## 2 roc_auc  binary         0.962 Preprocessor1_Model1
```

]
.panel[.panel-name[Résultats performance]

```
## # A tibble: 3,333 x 7
##    id             .pred_No .pred_Yes  .row .pred_class default .config          
##    <chr>             <dbl>     <dbl> <int> <fct>       <fct>   <chr>            
##  1 train/test sp…    0.997  0.00348      1 No          No      Preprocessor1_Mo…
##  2 train/test sp…    0.996  0.00403      5 No          No      Preprocessor1_Mo…
##  3 train/test sp…    0.999  0.000837    18 No          No      Preprocessor1_Mo…
##  4 train/test sp…    0.987  0.0132      20 No          No      Preprocessor1_Mo…
##  5 train/test sp…    1.00   0.000395    21 No          No      Preprocessor1_Mo…
##  6 train/test sp…    0.996  0.00353     25 No          No      Preprocessor1_Mo…
##  7 train/test sp…    0.998  0.00222     27 No          No      Preprocessor1_Mo…
##  8 train/test sp…    0.988  0.0122      30 No          No      Preprocessor1_Mo…
##  9 train/test sp…    0.999  0.00144     31 No          No      Preprocessor1_Mo…
## 10 train/test sp…    0.999  0.000564    32 No          No      Preprocessor1_Mo…
## # … with 3,323 more rows
```
…
